spi_peripheral.vcd
$date
	Thu Nov  5 12:18:01 2020
$end
$version
	Icarus Verilog
$end
$timescale
	1ps
$end
$scope module top $end
$scope module spi_peripheral $end
$var wire 1 ! clk $end
$var wire 168 " rdat [167:0] $end
$var wire 1 # reset $end
$var wire 1 $ spi_clk $end
$var wire 1 % spi_copi $end
$var wire 1 & spi_cs $end
$var wire 1 ' spi_reset $end
$var wire 1 ( spi_cipo $end
$var wire 1 ) mosi_cnt_is_zero $end
$var reg 7 * addr [6:0] $end
$var reg 1 + eoa $end
$var reg 1 , eot $end
$var reg 168 - miso_shift [167:0] $end
$var reg 13 . mosi_cnt [12:0] $end
$var reg 168 / mosi_shift [167:0] $end
$var reg 1 0 rd $end
$var reg 1 1 re $end
$var reg 168 2 wdat [167:0] $end
$var reg 1 3 we $end
$var reg 3 4 we_dly [2:0] $end
$upscope $end
$upscope $end
$scope module top $end
$var wire 1 5 clk $end
$var wire 1 ! clk_32m $end
$var wire 1 6 reset_async $end
$var wire 1 $ spi_clk $end
$var wire 1 % spi_copi $end
$var wire 1 & spi_cs $end
$var wire 168 7 wdat [167:0] $end
$var wire 1 3 spi_we $end
$var wire 1 ' spi_reset $end
$var wire 1 1 spi_re $end
$var wire 1 ( spi_cipo $end
$var wire 1 # reset $end
$var wire 8 8 pmod6 [7:0] $end
$var wire 1 ) mosi_cnt_is_zero $end
$var wire 7 9 addr [6:0] $end
$var reg 168 : rdat [167:0] $end
$var reg 6 ; reset_cnt [5:0] $end
$scope module spi_peripheral $end
$upscope $end
$upscope $end
$enddefinitions $end
#0
$dumpvars
b1 ;
b0 :
bx 9
bz111 8
bx 7
z6
15
b0 4
03
bx 2
01
00
b0 /
b0 .
b0 -
0,
0+
bx *
1)
0(
1'
1&
0%
0$
1#
b0 "
1!
$end
#50000000
0!
05
#100000000
b10 ;
1!
15
#150000000
0!
05
#200000000
b11 ;
1!
15
#250000000
0!
05
#300000000
b100 ;
1!
15
#350000000
0!
05
#400000000
b101 ;
1!
15
#450000000
0!
05
#500000000
b110 ;
1!
15
#550000000
0!
05
#600000000
b111 ;
1!
15
#650000000
0!
05
#700000000
b1000 ;
1!
15
#750000000
0!
05
#800000000
b1001 ;
1!
15
#850000000
0!
05
#900000000
b1010 ;
1!
15
#950000000
0!
05
#1000000000
b1011 ;
1!
15
#1050000000
0!
05
#1100000000
b1100 ;
1!
15
#1150000000
0!
05
#1200000000
b1101 ;
1!
15
#1250000000
0!
05
#1300000000
b1110 ;
1!
15
#1350000000
0!
05
#1400000000
b1111 ;
1!
15
#1450000000
0!
05
#1500000000
b10000 ;
1!
15
#1550000000
0!
05
#1600000000
b10001 ;
1!
15
#1650000000
0!
05
#1700000000
b10010 ;
1!
15
#1750000000
0!
05
#1800000000
b10011 ;
1!
15
#1850000000
0!
05
#1900000000
b10100 ;
1!
15
#1950000000
0!
05
#2000000000
b10101 ;
1!
15
#2050000000
0!
05
#2100000000
b10110 ;
1!
15
#2150000000
0!
05
#2200000000
b10111 ;
1!
15
#2250000000
0!
05
#2300000000
b11000 ;
1!
15
#2350000000
0!
05
#2400000000
b11001 ;
1!
15
#2450000000
0!
05
#2500000000
b11010 ;
1!
15
#2550000000
0!
05
#2600000000
b11011 ;
1!
15
#2650000000
0!
05
#2700000000
b11100 ;
1!
15
#2750000000
0!
05
#2800000000
b11101 ;
1!
15
#2850000000
0!
05
#2900000000
b11110 ;
1!
15
#2950000000
0!
05
#3000000000
b11111 ;
1!
15
#3050000000
0!
05
#3100000000
0#
b100000 ;
1!
15
